{
  "data": [
    {
      "id": "lm-contact-p1-001",
      "type": "contact",
      "attributes": {
        "first_name": "Page One",
        "last_name": "Contact A",
        "email": "page1a@example.com",
        "phone": "(555) 001-0001",
        "contact_type": "Individual",
        "created_at": "2024-01-01T10:00:00Z",
        "updated_at": "2024-07-01T10:00:00Z"
      }
    },
    {
      "id": "lm-contact-p1-002",
      "type": "contact",
      "attributes": {
        "first_name": "Page One",
        "last_name": "Contact B",
        "email": "page1b@example.com",
        "phone": "(555) 001-0002",
        "contact_type": "Individual",
        "created_at": "2024-01-02T10:00:00Z",
        "updated_at": "2024-07-02T10:00:00Z"
      }
    },
    {
      "id": "lm-contact-p1-003",
      "type": "contact",
      "attributes": {
        "first_name": "Page One",
        "last_name": "Contact C",
        "email": "page1c@example.com",
        "phone": "(555) 001-0003",
        "contact_type": "Individual",
        "created_at": "2024-01-03T10:00:00Z",
        "updated_at": "2024-07-03T10:00:00Z"
      }
    }
  ],
  "meta": {
    "pagination": {
      "current_page": 1,
      "total_pages": 3,
      "total_count": 7,
      "per_page": 3
    }
  }
}
