{
  "data": [
    {
      "id": "lm-contact-p2-001",
      "type": "contact",
      "attributes": {
        "first_name": "Page Two",
        "last_name": "Contact D",
        "email": "page2d@example.com",
        "phone": "(555) 002-0001",
        "contact_type": "Individual",
        "created_at": "2024-02-01T10:00:00Z",
        "updated_at": "2024-07-04T10:00:00Z"
      }
    },
    {
      "id": "lm-contact-p2-002",
      "type": "contact",
      "attributes": {
        "first_name": "Page Two",
        "last_name": "Contact E",
        "email": "page2e@example.com",
        "phone": "(555) 002-0002",
        "contact_type": "Individual",
        "created_at": "2024-02-02T10:00:00Z",
        "updated_at": "2024-07-05T10:00:00Z"
      }
    },
    {
      "id": "lm-contact-p2-003",
      "type": "contact",
      "attributes": {
        "first_name": "Page Two",
        "last_name": "Contact F",
        "email": "page2f@example.com",
        "phone": "(555) 002-0003",
        "contact_type": "Individual",
        "created_at": "2024-02-03T10:00:00Z",
        "updated_at": "2024-07-06T10:00:00Z"
      }
    }
  ],
  "meta": {
    "pagination": {
      "current_page": 2,
      "total_pages": 3,
      "total_count": 7,
      "per_page": 3
    }
  }
}
